simulation/qsim/Contador8.msim.vcd
$comment
	File created using the following command:
		vcd file Contador8.msim.vcd -direction
$end
$date
	Wed May  9 16:03:13 2018
$end
$version
	ModelSim Version 10.5b
$end
$timescale
	1ps
$end

$scope module Contador8_vlg_vec_tst $end
$var reg 1 ! clk $end
$var reg 1 " rst_n $end
$var wire 1 # cont [7] $end
$var wire 1 $ cont [6] $end
$var wire 1 % cont [5] $end
$var wire 1 & cont [4] $end
$var wire 1 ' cont [3] $end
$var wire 1 ( cont [2] $end
$var wire 1 ) cont [1] $end
$var wire 1 * cont [0] $end

$scope module i1 $end
$var wire 1 + gnd $end
$var wire 1 , vcc $end
$var wire 1 - unknown $end
$var tri1 1 . devclrn $end
$var tri1 1 / devpor $end
$var tri1 1 0 devoe $end
$var wire 1 1 ~QUARTUS_CREATED_GND~I_combout $end
$var wire 1 2 clk~input_o $end
$var wire 1 3 clk~inputCLKENA0_outclk $end
$var wire 1 4 Add0~1_sumout $end
$var wire 1 5 rst_n~input_o $end
$var wire 1 6 Add1~37_sumout $end
$var wire 1 7 Add1~38 $end
$var wire 1 8 Add1~41_sumout $end
$var wire 1 9 Add1~42 $end
$var wire 1 : Add1~45_sumout $end
$var wire 1 ; Add1~46 $end
$var wire 1 < Add1~49_sumout $end
$var wire 1 = Add1~50 $end
$var wire 1 > Add1~5_sumout $end
$var wire 1 ? Add1~6 $end
$var wire 1 @ Add1~9_sumout $end
$var wire 1 A Add1~10 $end
$var wire 1 B Add1~13_sumout $end
$var wire 1 C Add1~14 $end
$var wire 1 D Add1~17_sumout $end
$var wire 1 E Add1~18 $end
$var wire 1 F Add1~21_sumout $end
$var wire 1 G Add1~22 $end
$var wire 1 H Add1~25_sumout $end
$var wire 1 I Add1~26 $end
$var wire 1 J Add1~1_sumout $end
$var wire 1 K Add1~2 $end
$var wire 1 L Add1~33_sumout $end
$var wire 1 M cont2[11]~feeder_combout $end
$var wire 1 N Add1~34 $end
$var wire 1 O Add1~29_sumout $end
$var wire 1 P cont2[12]~feeder_combout $end
$var wire 1 Q Equal0~1_combout $end
$var wire 1 R Equal0~0_combout $end
$var wire 1 S Add1~30 $end
$var wire 1 T Add1~57_sumout $end
$var wire 1 U Add1~58 $end
$var wire 1 V Add1~53_sumout $end
$var wire 1 W Add1~54 $end
$var wire 1 X Add1~65_sumout $end
$var wire 1 Y Add1~66 $end
$var wire 1 Z Add1~69_sumout $end
$var wire 1 [ Add1~70 $end
$var wire 1 \ Add1~73_sumout $end
$var wire 1 ] Add1~74 $end
$var wire 1 ^ Add1~77_sumout $end
$var wire 1 _ Add1~78 $end
$var wire 1 ` Add1~81_sumout $end
$var wire 1 a Add1~82 $end
$var wire 1 b Add1~85_sumout $end
$var wire 1 c Add1~86 $end
$var wire 1 d Add1~89_sumout $end
$var wire 1 e Add1~90 $end
$var wire 1 f Add1~93_sumout $end
$var wire 1 g Add1~94 $end
$var wire 1 h Add1~61_sumout $end
$var wire 1 i Add1~62 $end
$var wire 1 j Add1~97_sumout $end
$var wire 1 k Equal0~3_combout $end
$var wire 1 l Equal0~2_combout $end
$var wire 1 m cont[1]~0_combout $end
$var wire 1 n cont[0]~reg0_q $end
$var wire 1 o Add0~2 $end
$var wire 1 p Add0~5_sumout $end
$var wire 1 q cont[1]~reg0_q $end
$var wire 1 r Add0~6 $end
$var wire 1 s Add0~9_sumout $end
$var wire 1 t cont[2]~reg0_q $end
$var wire 1 u Add0~10 $end
$var wire 1 v Add0~13_sumout $end
$var wire 1 w cont[3]~reg0_q $end
$var wire 1 x Add0~14 $end
$var wire 1 y Add0~17_sumout $end
$var wire 1 z cont[4]~reg0_q $end
$var wire 1 { Add0~18 $end
$var wire 1 | Add0~21_sumout $end
$var wire 1 } cont[5]~reg0_q $end
$var wire 1 ~ Add0~22 $end
$var wire 1 !! Add0~25_sumout $end
$var wire 1 "! cont[6]~reg0_q $end
$var wire 1 #! Add0~26 $end
$var wire 1 $! Add0~29_sumout $end
$var wire 1 %! cont[7]~reg0_q $end
$var wire 1 &! cont2 [24] $end
$var wire 1 '! cont2 [23] $end
$var wire 1 (! cont2 [22] $end
$var wire 1 )! cont2 [21] $end
$var wire 1 *! cont2 [20] $end
$var wire 1 +! cont2 [19] $end
$var wire 1 ,! cont2 [18] $end
$var wire 1 -! cont2 [17] $end
$var wire 1 .! cont2 [16] $end
$var wire 1 /! cont2 [15] $end
$var wire 1 0! cont2 [14] $end
$var wire 1 1! cont2 [13] $end
$var wire 1 2! cont2 [12] $end
$var wire 1 3! cont2 [11] $end
$var wire 1 4! cont2 [10] $end
$var wire 1 5! cont2 [9] $end
$var wire 1 6! cont2 [8] $end
$var wire 1 7! cont2 [7] $end
$var wire 1 8! cont2 [6] $end
$var wire 1 9! cont2 [5] $end
$var wire 1 :! cont2 [4] $end
$var wire 1 ;! cont2 [3] $end
$var wire 1 <! cont2 [2] $end
$var wire 1 =! cont2 [1] $end
$var wire 1 >! cont2 [0] $end
$upscope $end
$upscope $end
$enddefinitions $end
#0
$dumpvars
0!
1"
0*
0)
0(
0'
0&
0%
0$
0#
0+
1,
x-
1.
1/
10
01
02
03
14
15
16
07
08
09
0:
0;
0<
0=
0>
0?
0@
0A
0B
0C
0D
0E
0F
0G
0H
0I
0J
0K
0L
0M
0N
0O
0P
0Q
0R
0S
0T
0U
0V
0W
0X
0Y
0Z
0[
0\
0]
0^
0_
0`
0a
0b
0c
0d
0e
0f
0g
0h
0i
0j
0k
0l
0m
0n
0o
0p
0q
0r
0s
0t
0u
0v
0w
0x
0y
0z
0{
0|
0}
0~
0!!
0"!
0#!
0$!
0%!
0>!
0=!
0<!
0;!
0:!
09!
08!
07!
06!
05!
04!
03!
02!
01!
00!
0/!
0.!
0-!
0,!
0+!
0*!
0)!
0(!
0'!
0&!
$end
#50000
1!
12
13
1>!
17
06
18
#100000
0"
0!
05
02
03
1m
#150000
1!
12
13
0>!
07
16
08
#200000
1"
0!
15
02
03
0m
#250000
1!
12
13
1>!
17
06
18
#300000
0!
02
03
#350000
1!
12
13
1=!
0>!
07
19
16
08
09
18
1:
0:
#400000
0!
02
03
#450000
1!
12
13
1>!
17
06
19
08
1:
#500000
0!
02
03
#550000
1!
12
13
1<!
0=!
0>!
07
09
1;
16
18
0:
0;
08
1:
1<
0<
#600000
0!
02
03
#650000
1!
12
13
1>!
17
06
18
#700000
0!
02
03
#750000
1!
12
13
1=!
0>!
07
19
16
08
09
1;
18
0:
0;
1:
1<
0<
#800000
0!
02
03
#850000
1!
12
13
1>!
17
06
19
08
1;
0:
1<
#900000
0!
02
03
#950000
1!
12
13
1;!
0<!
0=!
0>!
07
09
0;
1=
16
18
1:
0<
0=
08
0:
1<
1>
0>
