output_files/simulation/qsim/flipflop_D.msim.vcd
$comment
	File created using the following command:
		vcd file flipflop_D.msim.vcd -direction
$end
$date
	Tue May  8 12:08:58 2018
$end
$version
	ModelSim Version 10.5b
$end
$timescale
	1ps
$end

$scope module flipflop_D_vlg_vec_tst $end
$var reg 1 ! clock $end
$var reg 1 " d $end
$var wire 1 # Q $end

$scope module i1 $end
$var wire 1 $ gnd $end
$var wire 1 % vcc $end
$var wire 1 & unknown $end
$var tri1 1 ' devclrn $end
$var tri1 1 ( devpor $end
$var tri1 1 ) devoe $end
$var wire 1 * d~input_o $end
$var wire 1 + ~QUARTUS_CREATED_GND~I_combout $end
$var wire 1 , clock~input_o $end
$upscope $end
$upscope $end
$enddefinitions $end
#0
$dumpvars
0!
0"
1#
0$
1%
x&
1'
1(
1)
0*
0+
0,
$end
#50000
1!
1,
0#
#90000
1"
1*
#100000
0!
0,
1#
#150000
1!
1,
0#
#180000
0"
0*
#200000
0!
0,
1#
#240000
1"
1*
#250000
1!
1,
0#
#300000
0!
0,
1#
#350000
1!
1,
0#
#360000
0"
0*
#400000
0!
0,
1#
#450000
1!
1,
0#
#500000
0!
0,
1#
#550000
1!
1,
0#
#600000
0!
0,
1#
#650000
1!
1,
0#
#700000
0!
0,
1#
#750000
1!
1,
0#
#800000
0!
0,
1#
#850000
1!
1,
0#
#900000
0!
0,
1#
#950000
1!
1,
0#
