output_files/simulation/qsim/Latch_D_RS.msim.vcd
$comment
	File created using the following command:
		vcd file Latch_D_RS.msim.vcd -direction
$end
$date
	Tue May  8 11:36:23 2018
$end
$version
	ModelSim Version 10.5b
$end
$timescale
	1ps
$end

$scope module Latch_D_RS_vlg_vec_tst $end
$var reg 1 ! d $end
$var reg 1 " enable $end
$var wire 1 # Q $end

$scope module i1 $end
$var wire 1 $ gnd $end
$var wire 1 % vcc $end
$var wire 1 & unknown $end
$var tri1 1 ' devclrn $end
$var tri1 1 ( devpor $end
$var tri1 1 ) devoe $end
$var wire 1 * ~QUARTUS_CREATED_GND~I_combout $end
$var wire 1 + d~input_o $end
$var wire 1 , enable~input_o $end
$var wire 1 - LRS|q_a~0_combout $end
$upscope $end
$upscope $end
$enddefinitions $end
#0
$dumpvars
0!
0"
0#
0$
1%
x&
1'
1(
1)
0*
0+
0,
1-
$end
#30000
1!
1"
1+
1,
0-
1#
#80000
0!
0+
1-
0#
#110000
1!
1+
0-
1#
#170000
0!
0+
1-
0#
#210000
1!
1+
0-
1#
#280000
0!
0+
1-
0#
#330000
0"
0,
#360000
1!
1+
#430000
0!
0+
#510000
1"
1,
#530000
1!
1+
0-
1#
#630000
0!
0+
1-
0#
#790000
0"
0,
