output_files/simulation/qsim/subtrator_completo.msim.vcd
$comment
	File created using the following command:
		vcd file subtrator_completo.msim.vcd -direction
$end
$date
	Tue May 15 11:24:48 2018
$end
$version
	ModelSim Version 10.5b
$end
$timescale
	1ps
$end

$scope module subtrator_completo_vlg_vec_tst $end
$var reg 1 ! T $end
$var reg 1 " a $end
$var reg 1 # b $end
$var wire 1 $ Tout $end
$var wire 1 % s $end

$scope module i1 $end
$var wire 1 & gnd $end
$var wire 1 ' vcc $end
$var wire 1 ( unknown $end
$var tri1 1 ) devclrn $end
$var tri1 1 * devpor $end
$var tri1 1 + devoe $end
$var wire 1 , ~QUARTUS_CREATED_GND~I_combout $end
$var wire 1 - a~input_o $end
$var wire 1 . T~input_o $end
$var wire 1 / b~input_o $end
$var wire 1 0 s~0_combout $end
$var wire 1 1 Tout~0_combout $end
$upscope $end
$upscope $end
$enddefinitions $end
#0
$dumpvars
1!
0"
0#
1$
1%
0&
1'
x(
1)
1*
1+
0,
0-
1.
0/
10
11
$end
#60000
0!
0.
01
00
0%
0$
#100000
1"
1-
10
1%
#150000
1!
1.
00
0%
#200000
1#
1/
11
10
1%
1$
#230000
0"
0-
00
0%
#370000
1"
1-
10
1%
#420000
0#
0/
01
00
0%
0$
#550000
0"
0-
11
10
1%
1$
